[
  {
    "name": "shashank",
    "job": "QA"
  },
  {
    "name": "sayali",
    "job": "QA"
  },
  {
    "name": "shrushti",
    "job": "QA"
  },
  {
    "name": "abdul",
    "job": "QA"
  },
  {
    "name": "pooja",
    "job": "QA"
  }
]